{
  "products": [
    {
      "id": 1,
      "name": "Zapatillas",
      "price": 49.99,
      "description": "Bellos zapatos antiguos para Hipsters.",
      "stars": 4.5,
      "image": "https://i.ibb.co/4j85tBM/shoes.jpg"
    },
    {
      "id": 2,
      "name": "Máquina de escribir",
      "price": 109.99,
      "description": "Bonita máquina de escribir antigua.",
      "stars": 4.2,
      "image": "https://i.ibb.co/84zfbz0/maquina.jpg"
    },
    {
      "id": 3,
      "name": "Lapiceros de colores",
      "price": 1.99,
      "description": "Estupendos bolígrafos de colores.",
      "stars": 1,
      "image": "https://i.ibb.co/s5m7HKt/lapiceros.jpg"
    },
    {
      "id": 4,
      "name": "Pantalón",
      "price": 49.99,
      "description": "Pantalón de moto para evitar heridas.",
      "stars": 4,
      "image": "https://i.ibb.co/6nnVkNY/pantalon.jpg"
    },
    {
      "id": 5,
      "name": "Cuaderno de colores",
      "price": 7.25,
      "description": "Excelente cuaderno para que apuntes tus clases.",
      "stars": 3.5,
      "image": "https://i.ibb.co/Jr3FHVd/cuaderno.jpg"
    },
    {
      "id": 6,
      "name": "Jarabe marca blanca",
      "price": 12.5,
      "description": "No cura el COVID, pero está muy rico.",
      "stars": 1,
      "image": "https://i.ibb.co/mhgHWnf/jarabe.jpg"
    },
    {
      "id": 7,
      "name": "Maceta de diseño",
      "price": 9.99,
      "description": "Maceta de diseño a precio económico.",
      "stars": 5,
      "image": "https://i.ibb.co/MZSrV6q/maceta.jpg"
    },
    {
      "id": 8,
      "name": "Gato Persa",
      "price": 100,
      "description": "No sé si es legal vender animales online...",
      "stars": 3,
      "image": "https://i.ibb.co/1zPPBjx/gato.jpg"
    },
    {
      "name": "Flexo",
      "price": "10",
      "description": "Si estás iluminado, estudiarás mejor",
      "stars": 3.5,
      "image": "https://images-na.ssl-images-amazon.com/images/I/71nIzPfWjXL._AC_SX342_.jpg",
      "id": 9
    },
    {
      "id": 11,
      "name": "Maleta",
      "price": "12",
      "description": "Estarás deseando que se vaya la pandemia para viajar con ella",
      "stars": 2,
      "image": "https://static.maletasgreenwich.com/19142-thickbox_default/maleta-cabina-esmirna-nuevo-modelo.jpg"
    }
  ]
}